{
	"categorizeds": [
		{
			"category": {
				"name": "Weekly",
				"type": 1,
				"delivery_day": null
			}
		},
		{
			"category": {
				"name": "Monday",
				"type": 5,
				"delivery_day": {
					"cutoff_day": "Sunday",
					"cutoff_time": "12:00:00",
					"is_available": true
				}
			}
		},
		{
			"category": {
				"name": "Thursday",
				"type": 5,
				"delivery_day": {
					"cutoff_day": "Wednesday",
					"cutoff_time": "12:00:00",
					"is_available": true
				}
			}
		}
	]
}
